<?xml version="1.0" encoding="UTF-8"?>
<svg width="147px" height="109px" viewBox="0 0 147 109" version="1.1" xmlns="http://www.w3.org/2000/svg" xmlns:xlink="http://www.w3.org/1999/xlink">
    <!-- Generator: Sketch 49.2 (51160) - http://www.bohemiancoding.com/sketch -->
    <title>undraw_credit_card_df1m</title>
    <desc>Created with Sketch.</desc>
    <defs>
        <linearGradient x1="37.2844693%" y1="117.946876%" x2="62.3263292%" y2="-17.3605393%" id="linearGradient-1">
            <stop stop-color="#808080" stop-opacity="0.25" offset="0%"></stop>
            <stop stop-color="#808080" stop-opacity="0.12" offset="54%"></stop>
            <stop stop-color="#808080" stop-opacity="0.1" offset="100%"></stop>
        </linearGradient>
        <linearGradient x1="54932%" y1="67928%" x2="54932%" y2="23384%" id="linearGradient-2">
            <stop stop-color="#808080" stop-opacity="0.25" offset="0%"></stop>
            <stop stop-color="#808080" stop-opacity="0.12" offset="54%"></stop>
            <stop stop-color="#808080" stop-opacity="0.1" offset="100%"></stop>
        </linearGradient>
        <linearGradient x1="49.9910539%" y1="100%" x2="49.9910539%" y2="0%" id="linearGradient-3">
            <stop stop-color="#FFFFFF" stop-opacity="0.12" offset="0%"></stop>
            <stop stop-color="#FFFFFF" stop-opacity="0.09" offset="55%"></stop>
            <stop stop-color="#FFFFFF" stop-opacity="0.02" offset="100%"></stop>
        </linearGradient>
        <linearGradient x1="88878%" y1="64614%" x2="88878%" y2="60303%" id="linearGradient-4">
            <stop stop-color="#FFFFFF" stop-opacity="0.12" offset="0%"></stop>
            <stop stop-color="#FFFFFF" stop-opacity="0.09" offset="55%"></stop>
            <stop stop-color="#FFFFFF" stop-opacity="0.02" offset="100%"></stop>
        </linearGradient>
        <linearGradient x1="74139%" y1="48705%" x2="74139%" y2="46456%" id="linearGradient-5">
            <stop stop-color="#FFFFFF" stop-opacity="0.12" offset="0%"></stop>
            <stop stop-color="#FFFFFF" stop-opacity="0.09" offset="55%"></stop>
            <stop stop-color="#FFFFFF" stop-opacity="0.02" offset="100%"></stop>
        </linearGradient>
        <linearGradient x1="94990%" y1="64614%" x2="94990%" y2="60303%" id="linearGradient-6">
            <stop stop-color="#FFFFFF" stop-opacity="0.12" offset="0%"></stop>
            <stop stop-color="#FFFFFF" stop-opacity="0.09" offset="55%"></stop>
            <stop stop-color="#FFFFFF" stop-opacity="0.02" offset="100%"></stop>
        </linearGradient>
        <linearGradient x1="94990%" y1="56930%" x2="94990%" y2="52620%" id="linearGradient-7">
            <stop stop-color="#FFFFFF" stop-opacity="0.12" offset="0%"></stop>
            <stop stop-color="#FFFFFF" stop-opacity="0.09" offset="55%"></stop>
            <stop stop-color="#FFFFFF" stop-opacity="0.02" offset="100%"></stop>
        </linearGradient>
        <linearGradient x1="81299%" y1="48705%" x2="81299%" y2="46456%" id="linearGradient-8">
            <stop stop-color="#FFFFFF" stop-opacity="0.12" offset="0%"></stop>
            <stop stop-color="#FFFFFF" stop-opacity="0.09" offset="55%"></stop>
            <stop stop-color="#FFFFFF" stop-opacity="0.02" offset="100%"></stop>
        </linearGradient>
    </defs>
    <g id="Главная" stroke="none" stroke-width="1" fill="none" fill-rule="evenodd">
        <g transform="translate(-1064.000000, -1892.000000)" fill-rule="nonzero" id="undraw_credit_card_df1m">
            <g transform="translate(1063.000000, 1891.000000)">
                <rect id="Rectangle-path" fill="url(#linearGradient-1)" transform="translate(66.288702, 51.346444) rotate(-17.260000) translate(-66.288702, -51.346444) " x="7.95667826" y="15.7205345" width="116.664047" height="71.2518195" rx="5"></rect>
                <rect id="Rectangle-path" fill="#FFFFFF" transform="translate(66.518430, 50.730613) rotate(-17.260000) translate(-66.518430, -50.730613) " x="9.37607234" y="16.3656204" width="114.284716" height="68.7299854" rx="5"></rect>
                <rect id="Rectangle-path" fill="#4285F4" transform="translate(60.497051, 31.261884) rotate(-17.260000) translate(-60.497051, -31.261884) " x="3.32672497" y="25.874004" width="114.340651" height="10.7757598"></rect>
                <rect id="Rectangle-path" fill="#BDBDBD" transform="translate(41.497946, 83.333203) rotate(-17.260000) translate(-41.497946, -83.333203) " x="26.9793866" y="81.202053" width="29.0371179" height="4.26229985"></rect>
                <rect id="Rectangle-path" fill="#E0E0E0" transform="translate(49.538950, 73.301996) rotate(-17.260000) translate(-49.538950, -73.301996) " x="24.3646417" y="71.1708464" width="50.3486172" height="4.26229985"></rect>
                <rect id="Rectangle-path" fill="url(#linearGradient-2)" x="30.4157205" y="38.5624454" width="117.322125" height="71.3222707" rx="5"></rect>
                <rect id="Rectangle-path" fill="#FFFFFF" x="31.7478894" y="39.2893741" width="114.284716" height="68.7299854" rx="5"></rect>
                <rect id="Rectangle-path" fill="#E0E0E0" x="40.671179" y="50.0780204" width="3.33042213" height="9.45647744"></rect>
                <rect id="Rectangle-path" fill="#E0E0E0" x="44.9334789" y="50.0780204" width="3.33042213" height="9.45647744"></rect>
                <rect id="Rectangle-path" fill="#E0E0E0" x="49.1957787" y="50.0780204" width="3.33042213" height="9.45647744"></rect>
                <rect id="Rectangle-path" fill="#E0E0E0" x="56.6556041" y="50.0780204" width="3.33042213" height="9.45647744"></rect>
                <rect id="Rectangle-path" fill="#E0E0E0" x="60.9179039" y="50.0780204" width="3.33042213" height="9.45647744"></rect>
                <rect id="Rectangle-path" fill="#E0E0E0" x="65.1802038" y="50.0780204" width="3.33042213" height="9.45647744"></rect>
                <rect id="Rectangle-path" fill="#E0E0E0" x="72.6384279" y="50.0780204" width="3.33042213" height="9.45647744"></rect>
                <rect id="Rectangle-path" fill="#E0E0E0" x="76.902329" y="50.0780204" width="3.33042213" height="9.45647744"></rect>
                <rect id="Rectangle-path" fill="#E0E0E0" x="81.1646288" y="50.0780204" width="3.33042213" height="9.45647744"></rect>
                <rect id="Rectangle-path" fill="#E0E0E0" x="88.622853" y="50.0780204" width="3.33042213" height="9.45647744"></rect>
                <rect id="Rectangle-path" fill="#E0E0E0" x="92.8851528" y="50.0780204" width="3.33042213" height="9.45647744"></rect>
                <rect id="Rectangle-path" fill="#E0E0E0" x="97.1474527" y="50.0780204" width="3.33042213" height="9.45647744"></rect>
                <rect id="Rectangle-path" fill="#BDBDBD" x="40.671179" y="97.7622999" width="29.0371179" height="4.26229985"></rect>
                <rect id="Rectangle-path" fill="#E0E0E0" x="40.671179" y="90.569869" width="50.3486172" height="4.26229985"></rect>
                <path d="M123.464192,74.430131 C123.450688,74.0433258 123.753092,73.7187063 124.139884,73.7048035 L125.142213,73.7048035 L125.142213,67.703639 L116.193304,67.703639 L116.193304,74.6046579 L123.462591,74.6046579 L123.464192,74.430131 Z" id="Shape" fill="url(#linearGradient-3)"></path>
                <path d="M124.139884,80.9068413 C123.753092,80.8929385 123.450688,80.5683191 123.464192,80.1815138 L123.464192,80.0005822 L116.194905,80.0005822 L116.194905,86.9016012 L125.142213,86.9016012 L125.142213,80.9068413 L124.139884,80.9068413 Z" id="Shape" fill="url(#linearGradient-4)"></path>
                <rect id="Rectangle-path" fill="url(#linearGradient-5)" x="116.194905" y="75.5045124" width="7.26928675" height="3.60101892"></rect>
                <path d="M127.657642,80.1815138 C127.671147,80.5683191 127.368742,80.8929385 126.981951,80.9068413 L125.986026,80.9068413 L125.986026,86.9080058 L134.933333,86.9080058 L134.933333,80.0005822 L127.664047,80.0005822 L127.657642,80.1815138 Z" id="Shape" fill="url(#linearGradient-6)"></path>
                <path d="M125.986026,67.703639 L125.986026,73.7048035 L126.988355,73.7048035 C127.375146,73.7187063 127.677551,74.0433258 127.664047,74.430131 L127.664047,74.6046579 L134.933333,74.6046579 L134.933333,67.703639 L125.986026,67.703639 Z" id="Shape" fill="url(#linearGradient-7)"></path>
                <rect id="Rectangle-path" fill="url(#linearGradient-8)" x="127.657642" y="75.5045124" width="7.26928675" height="3.60101892"></rect>
                <path d="M123.494614,74.4973799 C123.494614,74.1436604 123.781361,73.8569141 124.13508,73.8569141 L125.095779,73.8569141 L125.095779,68.5266376 L116.561572,68.5266376 L116.561572,74.6526929 L123.496215,74.6526929 L123.494614,74.4973799 Z" id="Shape" fill="#4285F4"></path>
                <path d="M124.138282,80.2471616 C123.784563,80.2471616 123.497817,79.9604153 123.497817,79.6066958 L123.497817,79.4465793 L116.559971,79.4465793 L116.559971,85.5742358 L125.094178,85.5742358 L125.094178,80.2471616 L124.138282,80.2471616 Z" id="Shape" fill="#4285F4"></path>
                <rect id="Rectangle-path" fill="#4285F4" x="116.559971" y="75.4516739" width="6.93464338" height="3.19752547"></rect>
                <path d="M127.494323,79.6034934 C127.494323,79.9572129 127.207577,80.2439592 126.853857,80.2439592 L125.893159,80.2439592 L125.893159,85.5726346 L134.427365,85.5726346 L134.427365,79.4481805 L127.494323,79.4481805 L127.494323,79.6034934 Z" id="Shape" fill="#4285F4"></path>
                <path d="M125.89476,68.5266376 L125.89476,73.855313 L126.855459,73.855313 C127.209178,73.855313 127.495924,74.1420593 127.495924,74.4957787 L127.495924,74.6558952 L134.430568,74.6558952 L134.430568,68.5266376 L125.89476,68.5266376 Z" id="Shape" fill="#4285F4"></path>
                <rect id="Rectangle-path" fill="#4285F4" x="127.495924" y="75.4516739" width="6.93464338" height="3.19752547"></rect>
            </g>
        </g>
    </g>
</svg>