<svg width="13" height="13" viewBox="0 0 13 13" fill="none" xmlns="http://www.w3.org/2000/svg">
    <path d="M12.8466 0.153796C12.6416 -0.0512654 12.3091 -0.0512654 12.104 0.153796L0.153815 12.1024C-0.0512718 12.3075 -0.0512718 12.64 0.153815 12.845C0.256346 12.9476 0.390769 12.9988 0.525166 12.9988C0.659563 12.9988 0.793961 12.9476 0.896517 12.845L12.8466 0.896354C13.0517 0.691318 13.0517 0.358858 12.8466 0.153796Z" fill="#FF6C6C"/>
    <path d="M12.8466 12.1024L0.896466 0.153796C0.691404 -0.0512654 0.358877 -0.0512654 0.153815 0.153796C-0.0512718 0.358832 -0.0512718 0.691293 0.153815 0.896354L12.104 12.845C12.2065 12.9476 12.3409 12.9988 12.4753 12.9988C12.6097 12.9988 12.7441 12.9476 12.8466 12.845C13.0517 12.64 13.0517 12.3075 12.8466 12.1024Z" transform="translate(0 0.000976562)" fill="#FF6C6C"/>
</svg>
