<svg width="15" height="16" viewBox="0 0 15 16" fill="none" xmlns="http://www.w3.org/2000/svg">
    <path d="M9.43777 0.17192L0.247344 9.36234C0.138511 9.47118 0.0791543 9.61957 0.0692731 9.76796L0 14.4472C0 14.6055 0.059357 14.7539 0.178071 14.8627C0.286904 14.9716 0.445178 15.021 0.59357 15.021H0.603451L5.14426 14.9815C5.30254 14.9815 5.45093 14.932 5.55976 14.8232L14.8293 5.55361C15.0569 5.32607 15.0569 4.95016 14.8293 4.71273L10.2787 0.162004C10.0413 -0.0556265 9.66531 -0.0556265 9.43777 0.17192ZM4.88707 13.8141L1.19706 13.8636L1.25641 10.0252L7.38998 3.89162L11.0998 7.60143L4.88707 13.8141ZM11.9308 6.77043L8.23086 3.06062L9.86318 1.4283L13.5631 5.13811L11.9308 6.77043Z" fill="#787878"/>
</svg>
